{
  "tasks": {
    "format": "deno fmt",
    "check": "deno fmt --check && deno lint && deno check **/*.ts && deno check **/*.tsx",
    "start": "deno run -A --watch=static/,routes/ dev.ts",
    "build": "deno run -A dev.ts build",
    "preview": "deno run -A main.ts",
    "update": "deno run -A -r https://fresh.deno.dev/update ."
  },
  "lint": { "files": { "include": ["./*"] }, "rules": { "tags": ["fresh", "recommended"] } },
  "fmt": {
    "include": ["./*"],
    "useTabs": false,
    "lineWidth": 100,
    "indentWidth": 2,
    "singleQuote": true,
    "proseWrap": "preserve",
    "semiColons": true
  },
  "exclude": ["**/_fresh/*"],
  "compilerOptions": { "jsx": "react-jsx", "jsxImportSource": "preact" },
  "importMap": "./import_map.json"
}
